\relax 
\providecommand\hyper@newdestlabel[2]{}
\@writefile{toc}{\contentsline {chapter}{\numberline {1}Introduction}{1}{chapter.14}}
\@writefile{lof}{\addvspace {10\p@ }}
\@writefile{lot}{\addvspace {10\p@ }}
\citation{chudnovskyy2012end}
\@writefile{toc}{\contentsline {section}{\numberline {1.1}Context}{3}{section.15}}
\@writefile{toc}{\contentsline {section}{\numberline {1.2}Master thesis description}{3}{section.17}}
\@writefile{lof}{\contentsline {figure}{\numberline {1.1}{\ignorespaces Omelette general picture\relax }}{4}{figure.caption.18}}
\providecommand*\caption@xref[2]{\@setref\relax\@undefined{#1}}
\newlabel{fig:generalpicture}{{1.1}{4}{Omelette general picture\relax }{figure.caption.18}{}}
\@writefile{toc}{\contentsline {section}{\numberline {1.3}Master thesis goals}{5}{section.19}}
\newlabel{sec:masterthesisgoals}{{1.3}{5}{Master thesis goals}{section.19}{}}
\@writefile{toc}{\contentsline {section}{\numberline {1.4}Structure of this Master Thesis}{5}{section.20}}
\@setckpt{1-introduction}{
\setcounter{page}{7}
\setcounter{equation}{0}
\setcounter{enumi}{0}
\setcounter{enumii}{0}
\setcounter{enumiii}{0}
\setcounter{enumiv}{0}
\setcounter{footnote}{1}
\setcounter{mpfootnote}{0}
\setcounter{part}{0}
\setcounter{chapter}{1}
\setcounter{section}{4}
\setcounter{subsection}{0}
\setcounter{subsubsection}{0}
\setcounter{paragraph}{0}
\setcounter{subparagraph}{0}
\setcounter{figure}{1}
\setcounter{table}{0}
\setcounter{parentequation}{0}
\setcounter{cor}{0}
\setcounter{thm}{0}
\setcounter{ContinuedFloat}{0}
\setcounter{KVtest}{0}
\setcounter{subfigure}{0}
\setcounter{subfigure@save}{0}
\setcounter{lofdepth}{1}
\setcounter{subtable}{0}
\setcounter{subtable@save}{0}
\setcounter{lotdepth}{1}
\setcounter{lstnumber}{1}
\setcounter{Item}{0}
\setcounter{Hfootnote}{1}
\setcounter{bookmark@seq@number}{11}
\setcounter{lstlisting}{0}
\setcounter{section@level}{0}
}
