\relax 
\@writefile{toc}{\contentsline {chapter}{\numberline {8}Requirement Analysis}{115}{chapter.193}}
\@writefile{lof}{\addvspace {10\p@ }}
\@writefile{lot}{\addvspace {10\p@ }}
\newlabel{chap:requirements}{{8}{115}{Requirement Analysis\relax }{chapter.193}{}}
\@writefile{toc}{\contentsline {section}{\numberline {8.1}Overview}{115}{section.194}}
\@writefile{toc}{\contentsline {section}{\numberline {8.2}Use cases}{116}{section.195}}
\@writefile{lot}{\contentsline {table}{\numberline {8.1}{\ignorespaces Actors list}}{116}{table.196}}
\newlabel{tab:actores}{{8.1}{116}{Actors list\relax }{table.196}{}}
\@writefile{lof}{\contentsline {figure}{\numberline {8.1}{\ignorespaces Representation of the natural language use cases}}{117}{figure.197}}
\newlabel{fig:req-usecasesc}{{8.1}{117}{Representation of the natural language use cases\relax }{figure.197}{}}
\@writefile{toc}{\contentsline {subsection}{\numberline {8.2.1}Proactive interaction (CU-1)}{117}{subsection.198}}
\@writefile{lot}{\contentsline {table}{\numberline {8.2}{\ignorespaces Use Case 1}}{118}{table.201}}
\newlabel{tab:cu1}{{8.2}{118}{Use Case 1\relax }{table.201}{}}
\@writefile{toc}{\contentsline {subsection}{\numberline {8.2.2}Talk (CU-2)}{119}{subsection.202}}
\@writefile{lot}{\contentsline {table}{\numberline {8.3}{\ignorespaces Use Case 2}}{119}{table.206}}
\newlabel{tab:cu2}{{8.3}{119}{Use Case 2\relax }{table.206}{}}
\@writefile{toc}{\contentsline {subsection}{\numberline {8.2.3}Answer a question (CU-3)}{119}{subsection.207}}
\@writefile{lot}{\contentsline {table}{\numberline {8.4}{\ignorespaces Use Case 3}}{120}{table.212}}
\newlabel{tab:cu3}{{8.4}{120}{Use Case 3\relax }{table.212}{}}
\@writefile{toc}{\contentsline {subsection}{\numberline {8.2.4}Access knowledge base (CU-4)}{121}{subsection.213}}
\@writefile{lot}{\contentsline {table}{\numberline {8.5}{\ignorespaces Use Case 4}}{121}{table.215}}
\newlabel{tab:cu4}{{8.5}{121}{Use Case 4\relax }{table.215}{}}
\@writefile{toc}{\contentsline {subsection}{\numberline {8.2.5}Execute an action (CU-5)}{121}{subsection.216}}
\@writefile{toc}{\contentsline {subsection}{\numberline {8.2.6}Index (CU-6)}{121}{subsection.221}}
\@writefile{lot}{\contentsline {table}{\numberline {8.6}{\ignorespaces Use Case 5}}{122}{table.220}}
\newlabel{tab:cu5}{{8.6}{122}{Use Case 5\relax }{table.220}{}}
\@writefile{lot}{\contentsline {table}{\numberline {8.7}{\ignorespaces Use Case 6}}{123}{table.224}}
\newlabel{tab:cu6}{{8.7}{123}{Use Case 6\relax }{table.224}{}}
\@writefile{toc}{\contentsline {subsection}{\numberline {8.2.7}Scraping (CU-7)}{124}{subsection.225}}
\@writefile{lot}{\contentsline {table}{\numberline {8.8}{\ignorespaces Use Case 7}}{124}{table.228}}
\newlabel{tab:cu7}{{8.8}{124}{Use Case 7\relax }{table.228}{}}
\@writefile{toc}{\contentsline {section}{\numberline {8.3}Conclusion: summary of requirements}{124}{section.229}}
\newlabel{sec:requirements}{{8.3}{124}{Conclusion: summary of requirements\relax }{section.229}{}}
\@setckpt{requisites}{
\setcounter{page}{126}
\setcounter{equation}{0}
\setcounter{enumi}{7}
\setcounter{enumii}{0}
\setcounter{enumiii}{0}
\setcounter{enumiv}{0}
\setcounter{footnote}{0}
\setcounter{mpfootnote}{0}
\setcounter{part}{0}
\setcounter{chapter}{8}
\setcounter{section}{3}
\setcounter{subsection}{0}
\setcounter{subsubsection}{0}
\setcounter{paragraph}{0}
\setcounter{subparagraph}{0}
\setcounter{figure}{1}
\setcounter{table}{8}
\setcounter{parentequation}{0}
\setcounter{cor}{0}
\setcounter{thm}{0}
\setcounter{Item}{44}
\setcounter{lstnumber}{17}
\setcounter{section@level}{0}
\setcounter{lstlisting}{0}
}
